{
  "iisSettings": {
    "windowsAuthentication": false,
    "anonymousAuthentication": true,
    "iisExpress": {
      "applicationUrl": "http://localhost:55556/",
      "sslPort": 0
    }
  },
  "profiles": {
    "IIS Express": {
      "commandName": "IISExpress",
      "launchBrowser": true,
      "launchUrl": "swagger/",
      "environmentVariables": {
        "SHOW_SQL_LOG": "true",
        "ASPNETCORE_ENVIRONMENT": "Development"
      }
    },
    "love2watch": {
      "commandName": "Project",
      "launchUrl": "api/values",
      "environmentVariables": {
        "ASPNETCORE_ENVIRONMENT": "Development"
      },
      "applicationUrl": "http://localhost:5000/"
    }
  }
}